{
   "type":"object",
   "properties":{
      "status":{
         "type":"number",
         "minimum":-1,
         "maximum":9
      },
      "message":{
         "type":"string",
         "maxLength": 255
      },
      "r_response":{
         "type":"object",
         "properties":{
            "tags":{
               "type":"array",
               "items":{
                  "type":"object",
                  "properties":{
                     "tag":{
                        "type":"string",
                        "pattern":"^([0-9a-zA-Z_]*)$"
                     },
                     "value":{
                        "type":[
                           "number"
                        ]
                     }
                  },
                  "required":[
                     "tag",
                     "value"
                  ]
               }
            }
         },
         "required":[
            "tags"
         ]
      }
   },
   "required":[
      "status",
      "message",
      "r_response"
   ]
}
