{
   "type":"object",
   "properties":{
      "controller_id":{
         "type":"number"
      },
      "w_request":{
         "type":"object",
         "properties":{
            "tags":{
               "type":"array",
               "items":{
                  "type":"object",
                  "properties":{
                     "tag":{
                        "type":"string",
                        "pattern":"^([0-9a-zA-Z_]*)$"
                     },
                     "value":{
                        "type":"number"
                     }
                  },
                  "required":[
                     "tag",
                     "value"
                  ]
               }
            }
         },
         "required":[
            "tags"
         ]
      }
   },
   "required":[
      "controller_id",
      "w_request"
   ]
}
